<?xml version="1.0" encoding="UTF-8" standalone="no"?>
<svg
   xmlns:dc="http://purl.org/dc/elements/1.1/"
   xmlns:cc="http://creativecommons.org/ns#"
   xmlns:rdf="http://www.w3.org/1999/02/22-rdf-syntax-ns#"
   xmlns:svg="http://www.w3.org/2000/svg"
   xmlns="http://www.w3.org/2000/svg"
   xmlns:sodipodi="http://sodipodi.sourceforge.net/DTD/sodipodi-0.dtd"
   xmlns:inkscape="http://www.inkscape.org/namespaces/inkscape"
   inkscape:version="1.0 (4035a4fb49, 2020-05-01)"
   width="80mm"
   height="60mm"
   viewBox="0 0 80 60"
   version="1.1"
   id="svg8"
   sodipodi:docname="bad_configuration_no_delaunay_2 - Kopie.svg">
  <defs
     id="defs2" />
  <sodipodi:namedview
     inkscape:window-maximized="1"
     inkscape:window-y="-9"
     inkscape:window-x="-9"
     inkscape:window-height="1013"
     inkscape:window-width="1920"
     showguides="false"
     showgrid="true"
     inkscape:document-rotation="0"
     inkscape:current-layer="layer2"
     inkscape:document-units="mm"
     inkscape:cy="211.91381"
     inkscape:cx="16.995748"
     inkscape:zoom="26.191582"
     inkscape:pageshadow="2"
     inkscape:pageopacity="0.0"
     borderopacity="1.0"
     bordercolor="#666666"
     pagecolor="#ffffff"
     id="base">
    <inkscape:grid
       originy="-100"
       originx="-20"
       id="grid10"
       type="xygrid" />
  </sodipodi:namedview>
  <metadata
     id="metadata5">
    <rdf:RDF>
      <cc:Work
         rdf:about="">
        <dc:format>image/svg+xml</dc:format>
        <dc:type
           rdf:resource="http://purl.org/dc/dcmitype/StillImage" />
        <dc:title />
      </cc:Work>
    </rdf:RDF>
  </metadata>
  <g
     transform="translate(-20,-100)"
     style="display:inline"
     id="layer1"
     inkscape:groupmode="layer"
     inkscape:label="Ebene 1">
    <rect
       y="100.25013"
       x="20.25013"
       height="59.499741"
       width="79.499741"
       id="rect1059"
       style="display:inline;opacity:1;fill:none;fill-opacity:1;stroke:#343a40;stroke-width:0.500259;stroke-miterlimit:4;stroke-dasharray:none;stroke-opacity:1" />
    <path
       id="path52"
       d="m 47.563184,130.39104 16.873601,-9.78205"
       style="fill:none;stroke:#e37222;stroke-width:0.5;stroke-linecap:butt;stroke-linejoin:miter;stroke-miterlimit:4;stroke-dasharray:none;stroke-opacity:1" />
    <path
       id="path878"
       d="m 54.586853,130.41314 9.826294,-9.82629"
       style="fill:none;stroke:#e37222;stroke-width:0.5;stroke-linecap:butt;stroke-linejoin:miter;stroke-miterlimit:4;stroke-dasharray:none;stroke-opacity:1" />
    <path
       id="path880"
       d="m 47.5,145.5 v -15"
       style="fill:none;stroke:#e37222;stroke-width:0.5;stroke-linecap:butt;stroke-linejoin:miter;stroke-miterlimit:4;stroke-dasharray:none;stroke-opacity:1" />
    <path
       id="path882"
       d="m 47.5,130.536 h 7"
       style="fill:none;stroke:#e37222;stroke-width:0.5;stroke-linecap:butt;stroke-linejoin:miter;stroke-miterlimit:4;stroke-dasharray:none;stroke-opacity:1" />
    <path
       id="path884"
       d="m 47.544338,145.37895 23.911308,-8.7579"
       style="fill:none;stroke:#e37222;stroke-width:0.5;stroke-linecap:butt;stroke-linejoin:miter;stroke-miterlimit:4;stroke-dasharray:none;stroke-opacity:1" />
    <path
       id="path886"
       d="m 64.62311,120.55231 6.753776,15.89541"
       style="fill:none;stroke:#e37222;stroke-width:0.5;stroke-linecap:butt;stroke-linejoin:miter;stroke-miterlimit:4;stroke-dasharray:none;stroke-opacity:1" />
    <path
       style="fill:none;stroke:#e37222;stroke-width:0.5;stroke-linecap:butt;stroke-linejoin:miter;stroke-miterlimit:4;stroke-dasharray:none;stroke-opacity:1"
       d="m 47.623134,145.44411 6.753739,-14.88825"
       id="path26" />
    <path
       style="fill:none;stroke:#e37222;stroke-width:0.5;stroke-linecap:butt;stroke-linejoin:miter;stroke-miterlimit:4;stroke-dasharray:none;stroke-opacity:1"
       d="M 47.607702,145.42726 64.392306,120.57273"
       id="path851" />
    <circle
       style="fill:none;stroke:#343a40;stroke-width:0.499999;stroke-miterlimit:4;stroke-dasharray:none;stroke-opacity:1"
       id="path855"
       cx="56.670998"
       cy="133.45599"
       r="15.138" />
  </g>
  <g
     transform="translate(-20,-100)"
     inkscape:label="Ebene 2"
     id="layer2"
     inkscape:groupmode="layer">
    <ellipse
       ry="1.2615907"
       rx="1.2615902"
       cy="136.5"
       cx="71.5"
       id="ellipse1063"
       style="fill:#343a40;fill-opacity:1;stroke:#343a40;stroke-width:0.476819;stroke-miterlimit:4;stroke-dasharray:none;stroke-opacity:1" />
    <ellipse
       ry="1.2615907"
       rx="1.2615902"
       cy="130.5"
       cx="47.5"
       id="ellipse864"
       style="fill:#a2ad00;fill-opacity:1;stroke:#a2ad00;stroke-width:0.477;stroke-miterlimit:4;stroke-dasharray:none;stroke-opacity:1" />
    <ellipse
       style="fill:#a2ad00;fill-opacity:1;stroke:#a2ad00;stroke-width:0.476819;stroke-miterlimit:4;stroke-dasharray:none;stroke-opacity:1"
       id="ellipse1061"
       cx="54.5"
       cy="130.5"
       rx="1.2615902"
       ry="1.2615907" />
    <ellipse
       ry="1.2615907"
       rx="1.2615902"
       cy="120.5"
       cx="64.5"
       id="ellipse860"
       style="fill:#343a40;fill-opacity:1;stroke:#343a40;stroke-width:0.476819;stroke-miterlimit:4;stroke-dasharray:none;stroke-opacity:1" />
    <ellipse
       style="fill:#343a40;fill-opacity:1;stroke:#343a40;stroke-width:0.476819;stroke-miterlimit:4;stroke-dasharray:none;stroke-opacity:1"
       id="ellipse862"
       cx="47.5"
       cy="145.5"
       rx="1.2615899"
       ry="1.2615904" />
    <ellipse
       style="fill:#343a40;fill-opacity:1;stroke:#343a40;stroke-width:0.476819;stroke-miterlimit:4;stroke-dasharray:none;stroke-opacity:1"
       id="ellipse1063-3"
       cx="175.97395"
       cy="136.37082"
       rx="1.2615892"
       ry="1.2615898" />
    <ellipse
       style="fill:#343a40;fill-opacity:1;stroke:#343a40;stroke-width:0.476819;stroke-miterlimit:4;stroke-dasharray:none;stroke-opacity:1"
       id="ellipse864-0"
       cx="132.05313"
       cy="124.33231"
       rx="1.2615892"
       ry="1.2615898" />
    <ellipse
       ry="1.2615898"
       rx="1.2615892"
       cy="124.19998"
       cx="145.0177"
       id="ellipse1061-1"
       style="fill:#343a40;fill-opacity:1;stroke:#343a40;stroke-width:0.476819;stroke-miterlimit:4;stroke-dasharray:none;stroke-opacity:1" />
    <ellipse
       style="fill:#343a40;fill-opacity:1;stroke:#343a40;stroke-width:0.476819;stroke-miterlimit:4;stroke-dasharray:none;stroke-opacity:1"
       id="ellipse860-3"
       cx="162.54634"
       cy="105.94375"
       rx="1.2615892"
       ry="1.2615898" />
    <ellipse
       ry="1.2615898"
       rx="1.2615892"
       cy="151.84897"
       cx="132.05312"
       id="ellipse862-2"
       style="fill:#343a40;fill-opacity:1;stroke:#343a40;stroke-width:0.476819;stroke-miterlimit:4;stroke-dasharray:none;stroke-opacity:1" />
    <rect
       ry="0.31510979"
       y="152.31175"
       x="21.381302"
       height="6.3765545"
       width="9.3765545"
       id="rect29"
       style="display:inline;fill:#e37222;fill-opacity:1;stroke:#e37222;stroke-width:0.623001;stroke-miterlimit:4;stroke-dasharray:none;stroke-opacity:1" />
    <path
       style="fill:none;stroke:#f8f9fa;stroke-width:0.625605;stroke-linecap:butt;stroke-linejoin:miter;stroke-miterlimit:4;stroke-dasharray:none;stroke-opacity:1"
       d="m 23.283333,153.45836 5.55625,3.96874"
       id="path869" />
    <path
       id="path869-0"
       d="m 23.283333,157.42708 5.55625,-3.96874"
       style="fill:none;stroke:#f8f9fa;stroke-width:0.625605;stroke-linecap:butt;stroke-linejoin:miter;stroke-miterlimit:4;stroke-dasharray:none;stroke-opacity:1" />
  </g>
</svg>
