<svg xmlns="http://www.w3.org/2000/svg" id="dpa-svg" viewBox="0 0 150 100" class="{{ include.class }}">
  <defs>
    <pattern id="grid" width="10" height="10" patternUnits="userSpaceOnUse">
      <rect width="10" height="10" stroke="#dee2e6" fill="none" stroke-width="0.25"/>
    </pattern>
  </defs>

  <!-- background grid with scale -->
  <rect width="100%" height="100%" fill="url(#grid)"/>
  <g class="text-monospace" font-size="0.15rem" fill="#6c757d">
    <text transform="translate(1 3)">0</text>
    <text transform="translate(51 3)">50</text>
    <text transform="translate(101 3)">100</text>
    <text text-anchor="end" transform="translate(149 3)">150</text>
    <text transform="translate(1 53)">50</text>
    <text transform="translate(1 99)">100</text>
  </g>

  <!-- original path -->
  <g stroke="#343a40">
    <g fill="none" stroke-width="0.5" stroke-dasharray="1,1" id="polyline-orig"></g>
    <g fill="#fff" stroke-width="0.5" id="points-orig"></g>
  </g>

  <!-- simplified path -->
  <g stroke="#0065bd">
    <g fill="none" stroke-width="0.5" id="polyline-simple"></g>
    <g fill="#fff" stroke-width="0.5" id="points-simple"></g>
  </g>
</svg>
