<svg xmlns="http://www.w3.org/2000/svg" width="390" height="210" viewBox="0 0 260 140">
  <rect x="10" y="90" width="40" height="40" fill="#fff" stroke="#000"/>
  <rect x="50" y="90" width="40" height="40" fill="#afd693" stroke="#000"/>
  <rect x="50" y="50" width="40" height="40" fill="#28a750" stroke="#000"/>
  <rect x="50" y="10" width="40" height="40" fill="#1e8b48" stroke="#000"/>
  <rect x="90" y="90" width="40" height="40" fill="#75ceee" stroke="#000"/>
  <rect x="90" y="50" width="40" height="40" fill="#4f63a8" stroke="#000"/>
  <rect x="130" y="90" width="40" height="40" fill="#f1e4a0" stroke="#000"/>
  <rect x="130" y="50" width="40" height="40" fill="#fcd232" stroke="#000"/>
  <rect x="130" y="10" width="40" height="40" fill="#d6ba57" stroke="#000"/>
  <rect x="170" y="90" width="40" height="40" fill="#fbba92" stroke="#000"/>
  <rect x="170" y="50" width="40" height="40" fill="#f48e4e" stroke="#000"/>
  <rect x="170" y="10" width="40" height="40" fill="#675143" stroke="#000"/>
  <rect x="210" y="90" width="40" height="40" fill="#444" stroke="#000"/>
  <rect x="210" y="50" width="40" height="40" fill="#000" stroke="#000"/>
</svg>
